/* XPM */
static const char *iconsmall_xpm[] = {
/* columns rows colors chars-per-pixel */
"128 128 199 2 ",
"   c #151A3A",
".  c #070E34",
"X  c #2F303A",
"o  c #1F2334",
"O  c #020C49",
"+  c #161D46",
"@  c #010D54",
"#  c #010E5C",
"$  c #051155",
"%  c #0A1555",
"&  c #0E1955",
"*  c #05125D",
"=  c #0A165B",
"-  c #0E195A",
";  c #131C55",
":  c #121D5A",
">  c #091246",
",  c #192255",
"<  c #1B255A",
"1  c #1A2359",
"2  c #1C2246",
"3  c #252B4A",
"4  c #222A54",
"5  c #232B5B",
"6  c #282F53",
"7  c #2B325B",
"8  c #2D3353",
"9  c #343A5D",
"0  c #343956",
"q  c #33364B",
"w  c #000F62",
"e  c #031164",
"r  c #00106C",
"t  c #081662",
"y  c #001173",
"u  c #00137F",
"i  c #2A3261",
"p  c #333A64",
"a  c #353C64",
"s  c #252E61",
"d  c #152060",
"f  c #3C405C",
"g  c #3D4366",
"h  c #464959",
"j  c #515256",
"k  c #414662",
"l  c #464B68",
"z  c #4D5168",
"x  c #535565",
"c  c #5A5C6A",
"v  c #565969",
"b  c #565A73",
"n  c #5D6176",
"m  c #5E606D",
"M  c #63646C",
"N  c #66666A",
"B  c #6B6C73",
"V  c #6C6E7A",
"C  c #646677",
"Z  c #6F7079",
"A  c #73757B",
"S  c #7A7A7D",
"D  c #737477",
"F  c #FF0202",
"G  c #FE0B0B",
"H  c #FD1D1D",
"J  c #FB3333",
"K  c #F94949",
"L  c #F67171",
"P  c #02FF02",
"I  c #0BFD0B",
"U  c #1BFA1B",
"Y  c #32F532",
"T  c #4FEE4F",
"R  c #6EE86E",
"E  c #F2F21E",
"W  c #EFEF26",
"Q  c #ECEC2C",
"!  c #F0F022",
"~  c #E6E63B",
"^  c #E9E933",
"/  c #DFDF4D",
"(  c #DCDC54",
")  c #D9D95A",
"_  c #E3E343",
"`  c #E1E148",
"'  c #D5D564",
"]  c #D2D26B",
"[  c #CBCB7B",
"{  c #CECE75",
"}  c #D0D071",
"|  c #021486",
" . c #777883",
".. c #7B7C84",
"X. c #787A85",
"o. c #6D7081",
"O. c #0101FE",
"+. c #0D0DF9",
"@. c #1717F5",
"#. c #3939E7",
"$. c #2323F0",
"%. c #5656DB",
"&. c #7373CF",
"*. c #6868D4",
"=. c #4545E2",
"-. c #F62AF6",
";. c #F725F7",
":. c #F434F4",
">. c #F33AF3",
",. c #EF4CEF",
"<. c #ED53ED",
"1. c #EC5BEC",
"2. c #F143F1",
"3. c #F048F0",
"4. c #E86BE8",
"5. c #E966E9",
"6. c #E773E7",
"7. c #E57BE5",
"8. c #7F8189",
"9. c #2CFBFB",
"0. c #36FAFA",
"q. c #43F9F9",
"w. c #4BF9F9",
"e. c #5DF7F7",
"r. c #52F8F8",
"t. c #59F8F8",
"y. c #63F7F7",
"u. c #6CF6F6",
"i. c #75F5F5",
"p. c #7BF5F5",
"a. c #838384",
"s. c #84858B",
"d. c #8B8C8D",
"f. c #878889",
"g. c #8C8D92",
"h. c #939494",
"j. c #9B9B9C",
"k. c #959699",
"l. c #8F9096",
"z. c #BEBE9C",
"x. c #9D9EA0",
"c. c #9898BF",
"v. c #9FA0A3",
"b. c #A3A3A3",
"n. c #ACACAC",
"m. c #A6A6A8",
"M. c #BBBBA3",
"N. c #B7B7AE",
"B. c #B8B8AA",
"V. c #AEAEB3",
"C. c #A5A5BA",
"Z. c #B4B4B4",
"A. c #BCBCBC",
"S. c #F29B9B",
"D. c #F38B8B",
"F. c #F0ADAD",
"G. c #98DF98",
"H. c #8BE18B",
"J. c #B3D9B3",
"K. c #C5C58B",
"L. c #C9C982",
"P. c #C2C293",
"I. c #C0C098",
"U. c #8888C6",
"Y. c #BFBFC0",
"T. c #DE9CDE",
"R. c #DF95DF",
"E. c #DBA6DB",
"W. c #D7BCD7",
"Q. c #D8B4D8",
"!. c #D8B8D8",
"~. c #E287E2",
"^. c #E091E0",
"/. c #88F3F3",
"(. c #94F2F2",
"). c #9BF2F2",
"_. c #BBEFEF",
"`. c #B7EFEF",
"'. c #ABF0F0",
"]. c #A3F1F1",
"[. c #B3F0F0",
"{. c #C3C3C3",
"}. c #CBCBCC",
"|. c #C7C7C8",
" X c #C9D4C9",
".X c #D5C4D5",
"XX c #D3CCD3",
"oX c #D2D2D2",
"OX c #DBDBDB",
"+X c #EDD8D8",
"@X c #EECACA",
"#X c #C3EEEE",
"$X c #CAEEEE",
"%X c #D3EDED",
"&X c #DBECEC",
"*X c #E3E3E3",
"=X c #E4EBEB",
"-X c #EBEBEB",
";X c #ECE3E3",
/* pixels */
"u u u | u u u u u u u u u u u u u u u u u u u u u u u u u u | u u u u u u u u u u u u u u u u u u u u u u u u u u u u u u u u u u u u u u u u u u u u u | u u u u u u u u u u u u r x Z * | u u u u t p % u u u u u u u u u u u u u u u u u u u u u u u u u u u ",
"u u u u u u u u u | u u u u u u u u u u u u u u u u u u u u u u u u u u u u u u u u u u u u u u u u u u u u u u u u u u u u u u u u u u u u u u u u u u u u u u u | u r u u u u u % }.oXc u u u | y V oXh.y u u u u u u u u u u u u u u u u u u u u u u u u u u ",
"u u u u u u u u u u u u u u u u u u u u u u u u u u u u u u u | u u u u u u u u u u u u u u u u u u u u u u u u u u u u u u u u u u u u u u u u u u u u u u u u u :  .S w | u u | z oXoXY.% u u u 4 }.oX|.@ u u u u u e u u u u u u u u u u u u | u u u u u u u ",
"u u u u u u u u u u u u u u u u u u u u u u u u u u u u u u u u u u u u u u u u u u u u u u u u u u u | u u u u u u | u u u u u u u u u u u u u u u u u u u u u u a oXoXA r u u u  .oXoXoXg u u y s.oXoXoX< u u | u 4 b.v r u u u u u u u u u u u u u u u u u u ",
"u u u u u u u u u u u u u u u u u u u u u u u u u u u u u u u u u u u u u u u u u u u u u u u u u u u u u u u u u u u u u u u u u u u u u u u u u u u u u u u u u g oXoXoXl u u u a.oXoXoXA | u @ |.oXoXoXs u u u 8 {.oXN.e u u u u u u u u u u u u u u u u u u ",
"u u u u u u u u u u u u u u u u u u u u u u u u u u u u u u u u u u | u u u u u u u u u u u u u u u u u u u u u u u u u u u u u u u u u u u u u u u u # u u u u | k oXoXoXZ.* y $ a.oXoXoXm.C C C oXoXoXoX< u u : A.oXoXm.r u u u u u u u u u u u u u u u u u u ",
"u u u u u u u u u u u u u u u u u u u u u u u u u u u u u u u u u u u u u u u u u u u u u u u u u u u u u u u u u u u u u u u u u u u u u u u u u r l n.k r u u u : oXoXoXoX..h.{.oXoXoXoXoXoXoXoXoXoXoXoXA p @ a.oXoXoXk.y u u u u u u u u u u u u u u u u u u ",
"u u u u u u u u u u u u u u u u u u u u u u u u u u u u u u u u u u u u u u u u u u u u u u u u u u u u u u u u u u u u u u u u u u u u u u u u u y j.oXoXh.t u u # N.oXoXoXoXoXoXoXoXoXoXoXoXoXoXoXoXoXoXoXoXA.}.oXoXoXC u u u u r 9 1 u u u u u u u u u u u u ",
"u u u u u | u u u u u u u u u u u u u u u u u u u u u u u u u u u u u u u u u u u u u u u u u u u u u u u u u u u u u u u u u u u u u u u u u u u u V oXoXoXj.* & V }.oXoXoXoXoXoXoXoXoXoXoXoXoXoXoXoXoXoXoXoXoXoXoXoX}., u u y 7 j.oXY.% u u u u u u u u u u u ",
"u u u u u u u u u u u u u u u u u u u u u u u u u u u u u u u u u u u u u u u u u u u u u u u u u u u | u u u u u u u u u u u u u u u u u u u u u u a oXoXoXoXj.|.oXoXoXoXoXoXW.~.1.>.-.-.-.-.-.-.:.<.7.E.XXoXoXoXoXoXoXs.; y l }.oXoXZ.# u u u u u u u u u u u ",
"u u u u u u u u u u u u u u u u u u u u u u u u u u u u u u u u u u u u u u u u u u u u u u u u u u u u | u u u u u u u u u u u u u u u u u u u u u e m.oXoXoXoXoXoXoXoXQ.5.-.>.6.E..XoXoXoXoXoXoX.XE.~.<.;.,.T.oXoXoXoXoXY.B oXoXoXoXA u u u u u u u u u u u u ",
"u u u u u u u u u u u u u u u u u u u u u u u u u u u u u u u u u u u u u u u u u u u u u u u u u u u u u u u u u u u u u u u u u u u | = ; r u u u u 0 }.oXoXoXoXoXT.>.>.^.XXoXoXoXoXoXoXoXoXoXoXoXoXoXoXoXE.1.-.7.XXoXoXoXoXoXoXoX}.< u u u u u u u u u u u u ",
"u u u u u u u u u u u u u u u u u u u u u u u u u u u u u u u u u u u u u u u u | u u u u u u u u u u u u u u u u u u u u u u u u u u e j.}.x.b # | r A oXoXoXoXQ.:.,.Q.oXoXoXoXoXoXoXoXoXoXoXoXoXoXoXoXoXoXoXoX.X6.-.~.oXoXoXoXoXoXZ y u u u u u u u u u u u u ",
"u u u u u u u u u u u u u u u u u u u u u u u u u u u u u u u u u u u u u u u u u u u u u u u u u u u u u u u u u u u u u u u u u u u * V.oXoXoXN.6 a.oXoXoXXX5.:.E.oXoXoXoXoXoXoXoXoXoXoXoXoXoXoXoXoXoXoXoXoXoXoXoX.X1.>.!.oXoXoX|.+ | u u y * < t u u u u u u ",
"u u u u u u u u u u u u u u u u u u u u u u u | u u u u u u u u u u u u u u u u u u u u u u u u u u u u u u u u u u u u u u u u u u u u l oXoXoXXX}.oXoXoX!.:.6.oXoXoXoXoXoXoXoXoXoXoXoXoXoXoXoXoXoXoXoXoXoXoXoXoXoXoXoXE.-.^.oXoXoXn.: r 9 g.Y.oX .y u u u u u ",
"u u u u u u u u u u u u u u u u u u u u u u u u u u u u u u u u u u u u u u u u u u u u u u u u u u u u u u u u u u u u u u u u u u u u e j.oXoXoXoXoXoXE.;.E.oXoXoXoXoXoXoXoXoXoXoXoXoXoXoXoXoXoXoXoXoXoXoXoXoXoXoXoXoXXX.X>.6.oXoXoXb.g.oXoXoXoXd.y u u u u u ",
"u u u u u u u u u u u u u u u u u u u u u u u u u u u u u u u u u u u u u u u u u u u u u u u u u u u u u u u u u u u u u u u u u u u u u - m.oXoXoXoXT.-.W.oXoXoXoXoXoXoXoXoXoXoXoXoXoXoXoXoXoXoXoXoXoXoXoXoXoXoXoXoXoXoXoXXX3.4.oXoXoXoXoXoXoX|.; u u u u u u ",
"u u u u u u u u u u u u u u u u u u u u u u u u u u u u u u y r u u u u u u u | u u u u u u u u u u u u u u u u u u u u u u u u u u u | u u 3 oXoXoXE.-.W.oXoXoXoXoXoXoXoXoXoXoXoXoXoXoXoXoXoXoXoXoXoXoXoXoXoXoXoXoXoXoXoXoXoXoX,.6.oXoXoXoXoX}.h u u u u u u u ",
"u u u u u u u u u u u u u u u u u u u u u u u | u u u u | 1 m.d.r u u u u u 9 n 1 u u u u u u u u u u u u u u u u u u u | u u r @ @ @ y | w h.oXoXW.;.!.oXoXoXoXoXoXoXoXoXoXoXoXoXoXoXoXoXoXoXoXoXoXoXoXoXoXoXoXoXoXoXoXoXoXoXoXXX>.^.oXoXoX|.k u u u u u u u u ",
"u u u u u u u u u u u u u u u u u u u u u u * r u u u u u n -X-Xg u u u u - oX-Xo.u u u u u u | u u u u u u u u u u u u u u u 7 oX|.{.h.v z oXoXoX:.T.oXoXoXoXoXoXoXoXoXoXoXoXoXoXoXoXoXoXoXoXoXoXoXoXoXoXoXoXoXoXoXoXoXoXoXoXoXoX.X-.!.oXoXf.r u u u u u u u u ",
"u u u u u u u u u u u u u u u u u u u u u z oX..r u u u r m.-X-XV.e u u u s.-X-Xb.y u u u u r % u u u u u u u u u u u u u u u v oXoXoXoXoXoXoXoX6.5.oXoXoXoXoXoXoXoXoXoXoXoXoXoXoXoXoXoXoXoXoXoXoXoXoXoXoXoXoXoXoXoXoXoXoXoXoXoXoXoXE.:.oXoXoX5 u u r y y u u u ",
"| u u u u u u u u u u u u u u u u u u u u s.-X-XV y u u w }.-X-X-X, u u % *X-X-X}.w u u u e g.OXx u u u u u u u u u u u u u u r s.oXoXoXoXoXoX!.-.XXoXoXoXoXoXoXoXoXoXoXoXoXoXoXoXoXoXoXoXoXoXoXoXoXoXoXoXoXoXoXoXoXoXoXoXoXoXoXoXoXoX1.~.oXoXh.k S x.x.k.f u u ",
"u u u u u u u u u u u u u u u u u u u u u d.-X-X-X7 | u @ OX-X-X;Xg y u z -X-X-XoXw u u e x.-X-X8.u u u u u u u u u u u u u u u e ..oXoXoXoXoX3.T.oXoXoXoXoXoXoXoXoXoXoXoXoXoXoXoXoXoXoXoXoXoXoXoXoXoXoXoXoXoXoXoXoXoXoXoXoXoXoXoXoXoX.X;.XXoXoXoXoXoXoXoXh.r u ",
"u u u u u u u u u u u u u | e % u u u u u s.-X-X-Xm.# $ 9 OX-X-X&XW.b.x.Z.-X-X-XA.w u u C -X-X-X .u u u u u u u u u u u u u u u u y 9 m.oXoXQ.:.oXoXoXoXoXoXoXoXoXoXoXoXoXoXoXoXoXoXoXoXoXoXoXoXoXoXoXoXoXoXoXoXoXoXoXoXoXoXoXoXoXoXoXoX4.6.oXoXoXoXoXoXA.6 u u ",
"u u u u u u u u u u u u u = V.OXb w u u | b -X-X-X*XZ.*X-X-X-X-X-X-X-X-X-X-X-X-X*Xx.b 2 *X-X-X-Xn u u u u u u u u u u u u u u u u u u a.oXoX<.R.XXoXoXoXoXoXoXoXoXoXoXoXoXoXoXoXoXoXoXoX XoXoXoXoXoXoXoXoXoXoXoXoXoXoXoXoXoXoXoXoXoXoXoX.X;.XXoXoXoXoXn.< u u u ",
"u u u u u u u u u u u u u $ *X-X-Xb.t | u + -X-X-X-X-X-X-X-X-X-X-X-X-X-X-X-X-X-X-X-X-X*X-X-X-X-X< u u | y 5 a.1 u u u u u u u u u u $ {.oXXX;.oXoXoXoXoXoXoXoXoXoXoXoXoXoXoXoXoXoXoXoX XH.R R R J.oXoXoXoXoXoXoXoXoXoXoXoXoXoXoXoXoXoXoXoX<.T.oXoXn.v e u u u u ",
"u u u u u u u u u u u u u r N.-X-X-Xb.O b }.-X-X-X-X-X-X-X-X-X%X#X_._.#X&X-X-X-X-X-X-X-X-X-X-XN.# | u = g.*X-Xn.r u u u u w & g b z v oXoXR.1.oXoXoXoXoXoXoXoXoXoXoXoXoXoXoXoXoXoXJ.T P P P P P P U G. XoXoXoXoXoXoXoXoXoXoXoXoXoXoXoXoXoXT.<.oXoXA u u u u u u ",
"u u u u u u u u u u u u u u V -X-X-X-XoX-X-X-X-X-X-X#X/.r.9.0.q.t.e.y.r.q.9.0.y.).&X-X-X-X-X-X-Xx.: : Z.-X-X-X .u u u u w h.oXoXXXoXoXoXoX1.T.oXoXoXoXoXoXoXoXoXoXoXoXoXoXoXoXoXH.I P P P P P P P P P R  XoXoXoXoXoXoXoXoXoXoXoXoXoXoXoXoXoX;.oXoXb.r u u u u u ",
"u u u u u u u u | u u u u u - OX-X-X-X-X-X-X-X%Xi.9.w.(.$X-X-X-X-X-X-X-X-X-X=X`.p.0.q.(.=X-X-X-X-XOXA.-X-X-X-Xi u u u u @ Y.oXoXoXoXoXoXoX-.XXoXoXoXoXoXoXoXoXoXoXoXoXoXoXoXoXG.P P P P P P P P P P P P R oXoXoXoXoXoXoXoXoXoXoXoXoXoXoXoXoX>.Q.oX}.2 5 ; # u u ",
"u u u u u u u u f i * u u u u M -X-X-X-X-X$Xt.0.).=X-X-X-X-X-X-X-X-X-X-X-X-X-X-X-X-X%Xp.9.i.&X-X-X-X-X-X-X-Xm.r u u u u u < k.oXoXoXoXoXXX-.oXoXoXoXoXoXoXoXoXoXoXoXoXoXoXoX XU P P P P P P P P P P P P P G.oXoXoXoXoXoXoXoXoXoXoXoXoXoXoXoX4.^.oXoXoXoXoXZ.S < ",
"u u u u u u u 7 -X-XXXA * u 7 oX-X-X-X&Xy.0.'.-X-X-X-X-X-X-X-X-X-X-X-X-X-X-X-X-X-X-X-X-X=X(.9./.=X-X-X-X-XOX< | u u u u u u e g s.Z.oXoXE.,.XXoXoXoXoXoXoXoXoXoXoXoXoXoXoXoXR P P P P P P P P P P P P P P Y oXoXoXoXoXoXoXoXoXoXoXoXoXoXoXoX^.4.oXoXoXoXoXoXoXC ",
"u u u u u u u ; OX-X-X-X}.v OX-X-X-X'.9.(.-X-X-X-X-X-X-X-X-X-X-X-X-X-X-X-X-X-X-X-X-X-X-X-X-X=Xu.q.$X-X-X-X{.- u u y $ p b e u u u + oXoXR.5.oXoXoXoXoXoXoXoXoXoXoXoXoXoXoXoXY P P P P P P P P P P P P P P P  XoXoXoXoXoXoXoXoXoXoXoXoXoXoXXXE.<.oXoXoXoXoXoXZ.0 ",
"u u u u u u u y X.-X-X-X-X-X-X-X-Xi.q.%X-X-X-X-X-X-X-X-X-X-X-X-X-X-X-X-X-X-X-X-X-X-X-X-X-X-X-X-X[.9.'.-X-X-XZ.= < g.*X-X-XC u u u < oXoX~.6.oXoXoXoXoXoXoXoXoXoXoXoXoXoXoXoXP P P P P P P P P P P P P P P P G.oXoXoXoXoXoXoXoXoXoXoXoXoXoXoXQ.2.oXoXoX}.j.v * u ",
"u | u u u u u | t A.-X-X-X-X-X=Xr.u.-X-X-X-X-X-X-X-X-X-X-X-X-X-X-X-X-X-X-X-X-X-X-X-X-X-X-X-X-X-X-X&X0.(.-X-X-XA.*X-X-X-X-Xa u u y 4 oXoX7.6.oXoXoXoXoXoXoXoXoXoXoXoXoXoXoX XP P P P P P P P P P P P P P P P H.oXoXoXoXoXoXoXoXoXoXoXoXoXoXoXQ.>.oXoXB @ r | u u ",
"u u u u u u u u u , Y.-X-X-X=Xw./.-X-X-X-X-X-X-X-X-X-X-X-X-X-X-X-X-X-X-X-X-X-X-X-X-X-X-X-X-X-X-X-X-X=Xw./.-X-X-X-X-X-X-Xg.r , C j.Z.oXoX~.6.oXoXoXoXoXoXoXoXoXoXoXoXoXoXoX XP P P P P P P P P P P P P P P P G.oXoXoXoXoXoXoXoXoXoXoXoXoXoXoXQ.2.oXoXn u u u u u ",
"u u u u u u u | u u  .-X-X-Xr./.-X-X-X-X-X-X-X-X-X-X-X-X-X-X-X-X-X-X-X-X-X-X-X-X-X-X-X-X-X-X-X-X-X-X-X=Xq.).-X-X-X-X-XV.  Z |.oXoXoXoXoX^.4.oXoXoXoXoXoXoXoXoXoXoXoXoXoXoXoXY P P P P P P P P P P P P P P P J.oXoXoXoXoXoXoXoXoXoXoXoXoXoXoXE.<.oXoXb u u u u u ",
"u u | - p i 1 w | 7 *X-X-Xp.u.-X-X-X-X-X-X-X-X-X-X-X-X-X-X-X-X-X-X-X-X-X-X-X-X-X-X-X-X-X-X-X-X-X-X-X-X-X&X0._.-X-X-Xj.t p oXoXoXoXoXoXoXE.<.oXoXoXoXoXoXoXoXoXoXoXoXoXoXoXoXR P P P P P P P P P P P P P P Y oXoXoXoXoXoXoXoXoXoXoXoXoXoXoXoX^.5.oXoXb.V 7 r u u ",
"u u y g.-X-X-X|. .Z.-X-X'.0.-X-X-X-X-X-X-X-X-X-X-X-X-X-X-X-X-X-X-X-X-X-X-X-X-X-X-X-X-X-X-X-X-X-X-X-X-X-X-X$X9.&X-X-XV u - f.|.oXoXoXoXoX.X:.oXoXoXoXoXoXoXoXoXoXoXoXoXoXoXoXJ.I P P P P P P P P P P P P P H.oXoXoXoXoXoXoXoXoXoXoXoXoXoXoXoX4.~.oXoXoXoXoXk.1 u ",
"u u r l.-X-X-X-X-X-X-X=X9.$X-X-X-X-X-X-X-X-X-X-X-X-X-X-X-X-X-X-X-X-X-X-X-X-X-X-X-X-X-X-X-X-X-X-X-X-X-X-X-X-X).e.-X-XOX- u @ . X h z m.oXoX;.oXoXoXoXoXoXoXoXoXoXoXoXoXoXoXoX XH.P P P P P P P P P P P P T oXoXoXoXoXoXoXoXoXoXoXoXoXoXoXoXoX3.Q.oXoXoXoXoXoX|.6 ",
"u u u t b.-X-X-X-X-X-Xi./.-X-X-X-X-X-X-X-X-X-X-X-X-X-X-X-X-X-X-X-X-X-X-X-X-X-X-X-X-X-X-X-X-X-X-X-X-X-X-X-X-X-Xq._.-X-Xj.k.|.;X*XoX5 Z oXoX,.E.oXoXoXoXoXoXoXoXoXoXoXoXoXoXoXoXoXR P P P P P P P P P P Y  XoXoXoXoXoXoXoXoXoXoXoXoXoXoXoXoXoX;.XXoXoXoXoXoXoXoX1 ",
"u u u u t f.-X-X-X-X%X9.-X-X-X-X-X-X-X-X-X-X-X-X-X-X-X-X-X-X-X-X-X-X-X-X-X-X-X-X-X-X-X-X-X-X-X-X-X-X-X-X-X-X-X#X0.-X-X-X-X-X-X-X;XM g oXoX~.4.oXoXoXoXoXoXoXoXoXoXoXoXoXoXoXoXoXoXG.U P P P P P P I R oXoXoXoXoXoXoXoXoXoXoXoXoXoXoXoXoXoXE.,.oXoXj.A S A l 1 r ",
"u u u u | y 7 }.-X-Xu.(.-X-X-X-X-X-X-X-X-X-X-X-X-X-X-X-X-X-X-X-X-X-X-X-X-X-X-X-X-X-X-X-X-X-X-X-X-X-X-X-X-X-X-X-Xr.[.-X-X-X-X-X;Xa.  Z oXoX.X-.oXoXoXoXoXoXoXoXoXoXoXoXoXoXoXoXoXoXoX XG.R Y Y T R  XoXoXoXoXoXoXoXoXoXoXoXoXoXoXoXoXoXoXoX5.~.oXoXk u u u u u | ",
"u u u u u u = *X-X&X9.=X-X-X-X-X-X-X-X-X-X-X-X-X-X-X-X-X-X-X-X-X-X-X-X-X-X-X-X-X-X-X-X-X-X-X-X-X-X-X-X-X-X-X-X-X_.w.-X-X-X-XOXN c |.oXoXoXoX3.E.oXoXoXoXoXoXoXoXoXoXoXoXoXoXoXoXoXoXoXoX XoXoXoXoXoXoXoXoXoXoXoXoXoXoXoXoXoXoXoXoXoXoXoXXX;.XXoX}.% | u u u u u ",
"u u u u u u l -X-X).i.-X-X-X-X-X-X-X-X-X-X-X-X-X-X-X-X-X-X-X+XD.K J J L S.-X-X-X-X-X-X-X-X-X-X-X-X-X-X-X-X-X-X-X-X9.%X-X-XX.+ S oXoXoXoXoXoXE.2.oXoXoXoXoXoXoXoXoXoXoXoXoXoXoXoXoXoXoXoXoXoXoXoXoXoXoXoXoXoXoXoXoXoXoXoXoXoXoXoXoXoXoXoX~.5.oXoXZ.7 y u u u u u ",
"r < b s.d.s.V.-X-Xw.#X-X-X-X-X-X-X-X-X-X-X-X-X-X-X-X-X-X;XL G F G F F F F H S.-X-X-X-X-X-X-X-X-X-X-X-X-X-X-X-X-X-Xp.(.-X-Xl v oXoXoXoXoXoXoXoX>.E.oXoXoXoXoXoXoXoXoXoXoXoXoXoXoXoXoXoXoXoXoXoXoXoXoXoXoXoXoXoXoXoXoXoXoXoXoXoXoXoXoXoXXX-.W.oXoXoXoX..t u u u u ",
"< -X-X-X-X-X-X-X=X9.-X-X-X-X-X-X-X-X-X-X-X-X-X-X-X-X-X;XJ F F F G F F F F F F L -X-X-X-X-X-X-X-X-X-X-X-X-X-X-X-X-X#Xr.-X-X..< Y.{.}.V.a.a.XXoXE.>.XXoXoXoXoXoXoXoXoXoXoXoXoXoXoXoXoXoXoXoXoXoXoXoXoXoXoXoXoXoXoXoXoXoXoXoXoXoXoXoXoXoX6.4.oXoXoXoXoXoXh.e u u u ",
"5 *X-X-X-X-X-X-X_.r.-X-X-X-X-X-X-X-X-X-X-X-X-X-X-X-X-XK F F F F F F F F F F F F D.-X-X-X-X-X-X-X-X-X-X-X-X-X-X-X-X-X9.-X-XA.v j q . @ u - {.oXoX<.~.oXoXoXoXoXoXoXoXoXoXoXoXoXoXoXoXoXoXoXoXoXoXoXoXoXoXoXoXoXoXoXoXoXoXoXoXoXoXoXXX!.-.XXoXoXXXoXoXoXoXs.r u u ",
"u < b.-X-X-X-X=X(./.-X-X-X-X-X-X-X-X-X-X-X-X-X-X-X;XS.F F F F F F F F F F F F F G +X-X-X-X-X-X-X-X-X-X-X-X-X-X-X-X-X0.%X-X-X-X-X;X;Xx.: u M oXoXXX;.Q.oXoXoXoXoXoXoXoXoXoXoXoXoXoXoXoXoXoXoXoXoXoXoXoXoXoXoXoXoXoXoXoXoXoXoXoXoXoXXX:.E.oXoXx.V n.oXoXoX..y u u ",
"u u r 7 X.Z.-X-Xi.].-X-X-X-X-X-X-X-X-X-X-X-X-X-X-X-XJ F F F F F F F F F F F F F F L -X-X-X-X-X-X-X-X-X-X-X-X-X-X-X-Xe._.-X-X-X-X-X-X-Xf - d.oXoXoXE.-..XoXoXoXoXoXoXoXoXoXoXoXoXoXoXoXoXoXoXoXoXoXoXoXoXoXoXoXoXoXoXoXoXoXoXoXoXoX1.6.oXoX}.< u e ; 5 s - u u u ",
"u u u u | b -X-Xt._.-X-X-X-X-X-X-X-X-X-X-X-X-X-X-X@XF F F F F F F F F F F F F F F J -X-X-X-X-X-X-X-X-X-X-X-X-X-X-X-Xi.).-X-X-X-X-X*X..  x.oXoXoXoXoX^.>.XXoXoXoXoXoXoXoXoXoXoXoXoXoXoXoXoXoXoXoXoXoXoXoXoXoXoXoXoXoXoXoXoXoXoXoX4.<.oXoXoXB y | u u u u | u u u ",
"u u u u | V -X-Xw.$X-X-X-X-X-X-X-X-X-X-X-X-X-X-X-XF.F F F F F F F F F F F F F F F F -X-X-X-X-X-X-X-X-X-X-X-X-X-X-X-Xp.(.-X-X}.m.V 1 r 8.oXoXoXoXoXoXoX7.>.XXoXoXoXoXoXoXoXoXoXoXoXoXoXoXoXoXoXoXoXoXoXoXoXoXoXoXoXoXoXoXoXoXoX6.3.XXoXoXoXV., u u u u u u u u u ",
"u u u r $ ..-X-Xw.$X-X-X-X-X-X-X-X-X-X-X-X-X-X-X-XS.F F F F F F F F F F F F F F F F ;X-X-X-X-X-X-X-X-X-X-X-X-X-X-X-X/.(.-X-X7 y | u 9 oXoXoXoX|.b.oXoXoX~.:.W.oXoXoXoXoXoXoXoXoXoXoXoXoXoXoXoXoXoXoXoXoXoXoXoXoXoXoXoXoXoXXX1.,.XXoXoXoXoXoXn.= u u u u u u u u ",
"| = C Z.*X-X-X-Xr.#X-X-X-X-X-X-X-X-X-X-X-X-X-X-X-XF.F F F F F F F F F F F F F F F G -X-X-X-X-X-X-X-X-X-X-X-X-X-X-X-Xp.(.-X-X< u u u x oXoX}...1 = x.oXoXoXT.;.T.oXoXoXoXoXoXoXoXoXoXoXoXoXoXoXoXoXoXoXoXoXoXoXoXoXoXoXoX!.>.6.oXoXoXoXoXoXoXoXV u u u u u u u u ",
"f }.-X-X-X-X-X-Xe.`.-X-X-X-X-X-X-X-X-X-X-X-X-X-X-X+XF F F F F F F F F F F F F F F J -X-X-X-X-X-X-X-X-X-X-X-X-X-X-X-Xi.].-X-X+ y u u e l 7 @ u u u % n.oXoXoXW.>.1..XoXoXoXoXoXoXoXoXoXoXoXoXoXoXoXoXoXoXoXoXoXoXoXoXoX7.-.T.oXoXoX{.h Z.oXoXoX}.; u u u u u u u ",
"X.-X-X-X-X-X-X-Xi.).-X-X-X-X-X-X-X-X-X-X-X-X-X-X-X-XK F F F F F F F F F F F F F F D.-X-X-X-X-X-X-X-X-X-X-X-X-X-X-X-Xr._.-X-XoXj.l e u u u u u u u < {.oXoXoXoXoX~.;.7.XXoXoXoXoXoXoXoXoXoXoXoXoXoXoXoXoXoXoXoXoXoX^.:.5.XXoXoXoXA.4 u = C Z.oX}.6 u u u u u u u ",
"s ..|.-X-X-X-X-X).p.-X-X-X-X-X-X-X-X-X-X-X-X-X-X-X-XF.F F F F F F F F F F F F F H ;X-X-X-X-X-X-X-X-X-X-X-X-X-X-X-X-X0.=X-X-X-X-X-XV.5 u u u u u r k.oXoXoXoXoXoXoX.X6.;.5.!.oXoXoXoXoXoXoXoXoXoXoXoXoXoXoXoXXX7.-.1.!.XXoXoXoXoXv y u u u # 5 9 u u u u u u u u ",
"| u w & 5 2 *X-X$Xq.-X-X-X-X-X-X-X-X-X-X-X-X-X-X-X-X-XL F F F F F F F F F F F G F.-X-X-X-X-X-X-X-X-X-X-X-X-X-X-X-X=X9.-X-X-X-X-X-X-XOX@ u u u | 7 oXoXoXoXb.{.oXoXoXoXXX^.>.:.5.T..XoXoXoXoXoXoXoXoXXXE.7.>.-.6..XoXoXoXoXoXoXoX{.% u u u u u u u u u u u u u u ",
"u u u u u r Z.-X-X9.=X-X-X-X-X-X-X-X-X-X-X-X-X-X-X-X-X-XL F F F F F F F F F G F.-X-X-X-X-X-X-X-X-X-X-X-X-X-X-X-X-X'.y.-X-X-X-X-X-X;Xj.r u u u u V oXoXoXb.- : f.oXoXoXoXoXoX.X^.1.:.-.:.2.,.,.3.>.-.:.,.~.!.oXoXoXoXoXoXZ.oXoXoXoXC u u u u u u u u u u u u u u ",
"u u u u u u ..-X-Xy.'.-X-X-X-X-X-X-X-X-X-X-X-X-X-X-X-X-X-XF.J F F G F F G K @X-X-X-X-X-X-X-X-X-X-X-X-X-X-X-X-X-X-Xy.].-X-Xb b b l = w u u u u w j.oX}. .= u u * x.oXoXoXoXoXoXoXoXoXoXXXW.Q.Q.Q..XoXoXoXoXoXoXoXoXoXZ.z @ g.oXoXoXx.r u u u u u u u u u u u u u ",
"u u u u e C |.-X-X'.t.-X-X-X-X-X-X-X-X-X-X-X-X-X-X-X-X-X-X-X-X@XD.L L S.+X-X-X-X-X-X-X-X-X-X-X-X-X-X-X-X-X-X-X-X-X9.=X-XOX@ u u u | u u u u u u ; Z 1 y u u | , oXoXoXoXoXoXoXoXoXoXoXoXoXoXoXoXoXoXoXoXoXoXoXoXXXoX+ u u e g.oXoX}.* u u u u u u u u u u u u u ",
"u u u 4 |.-X-X-X-X-X9.&X-X-X-X-X-X-X-X-X-X-X-X-X-X-X-X-X-X-X-X-X-X-X-X-X-X-X-X-X-X-X-X-X-X-X-X-X-X-X-X-X-X-X-X-X).y.-X-Xh.u | u u u u u u u u u u u u u y r u v oXoXoX|.+ l d.|.oXoXoXoXoXoXoXoXoXoXoXoX|.j.}.oXoXoXz u u u r l Y.j.= u u u u u u u u u u u u u ",
"u u 7 OX-X-X-X-X-X-X/.p.-X-X-X-X-X-X-X-X-X-X-X-X-X-X-X-X-X-X-X-X-X-X-X-X-X-X-X-X-X-X-X-X-X-X-X-X-X-X-X-X-X-X-X-X0.$X-X-XA.k r | u u u u u | u u u u u 4 ..x u V oXoXoXv q l . m.oXoXoXb.f.g.m.oXoXoX{.6 $ w k.oXoXoXS u u u u u % e u u u u u u u u u u u u u u ",
"u r b.-X-X-X-X-X-X-X=X9.&X-X-X-X-X-X-X-X-X-X-X-X-X-X-X-X-X-X-X-X-X-X-X-X-X-X-X-X-X-X-X-X-X-X-X-X-X-X-X-X-X-X-X].e.-X-X-X-X-Xg.e u u u u @ y u u u u u M Z.V.; A oXoXd.  n.Z.X A.oXoXoXl | y g oXoXoX|.@ u u 4 oXoXoXa.u u u u u u u u u u u u u u u u u u u u u ",
"u u k b.n.m.s.l b.-X-X(.e.-X-X-X-X-X-X-X-X-X-X-X-X-X-X-X-X-X-X-X-X-X-X-X-X-X-X-X-X-X-X-X-X-X-X-X-X-X-X-X-X-X=X0.%X-X-X-X-X-X-Xj.w u y j b.h y u u u @ j.Z.N.B h {. .@ a.Z.Z.N Z.oXoX}.$ e @ & }.oXoXA.# u u y m oXoXA u u u u u u u u u u u u u u u u u u u u u ",
"u u u y y r u u 7 -X-X-Xq.[.-X-X-X-X-X-X-X-X-X-X-X-X-X-X-X-X-X-X-X-X-X-X-X-X-X-X-X-X-X-X-X-X-X-X-X-X-X-X-X-Xu./.-X-X-X-X-X-X-X-XC u y a.Z.Z.0 u u u @ Z.Z.Z.b.@ % r , Z.Z.Z.a.d.oXoXS $ ..b.X j.oXoXk.r u u u r V A.h u u u u u u u u u u u u u u u u u u u u u ",
"u u | u u u u | y k.-X-X$X9.&X-X-X-X-X-X-X-X-X-X-X-X-X-X-X-X-X-X-X-X-X-X-X-X-X-X-X-X-X-X-X-X-X-X-X-X-X-X-X'.0.-X-X-Xc b v.oX*X*Xi u r f.Z.Z.n.; u u & Z.Z.Z.Z.; y u x Z.Z.Z.a.N oXN.  f.Z.Z.l 7 oXoXv u u u u | r # u u u u u u u u u u u u u u u u u u u u u u ",
"u u u u u u u y z OX-X-X-X'.0.=X-X-X-X-X-X-X-X-X-X-X-X-X-X-X-X-X-X-X-X-X-X-X-X-X-X-X-X-X-X-X-X-X-X-X-X-X$X9.%X-X-Xm.r u @ . @ @ r u y a.Z.Z.Z.M w @ q Z.Z.Z.Z.f.S D h.Z.Z.Z.D ; z q N Z.Z.Z.k r S h.; u u u u u u u u u u u u u u u u u u u u u u u u u u u u u ",
"u u u u u u u z =X-X-X-X-X-X/.w.-X-X-X-X-X-X-X-X-X-X-X-X-X-X-X-X-X-X-X-X-X-X-X-X-X-X-X-X-X-X-X-X-X-X-X%X9._.-X-X-X4 u : h.j.8 r | u u c Z.Z.Z.m.f.N.Z.Z.Z.Z.Z.Z.Z.Z.Z.Z.Z.Z.b.Z a 3 Z.Z.Z.Z.7 u r u u u u u u u u u u u u u u u u u u u u u u u u u u u u | u u ",
"u u u u u u ; OX-X-X-X-X-X-X-X/.w.=X-X-X-X-X-X-X-X-X-X-X-X-X-X-X-X-X-X-X-X-X-X-X-X-X-X-X-X-X-X-X-X-X$X9.`.-X-X-X-XY.- ; N.Z.Z.M e u u 3 Z.Z.Z.Z.Z.Z.Z.Z.Z.Z.Z.Z.Z.Z.Z.Z.Z.Z.Z.Z.Z.Z.Z.Z.Z.m.$ u u u r < c = u u u u u u u u u u u u u u u u u u u u u u u u u u ",
"u u u u u r x.-X-X-X-Xj.Z.-X-X-X(.0.%X-X-X-X-X-X-X-X-X-X-X-X-X-X-X-X-X-X-X-X-X-X-X-X-X-X-X-X-X-X-X[.9._.-X-X-X-X-X-Xn.> b.Z.Z.Z.c $ x b.Z.Z.Z.Z.Z.Z.Z.Z.N.M.I.P.I.M.N.Z.Z.Z.Z.Z.Z.Z.Z.Z.Z.B r u u : A Z.N.N u u u u u u u u u u u u u u u u u u u u u u u u u u ",
"u u u u u y s.-XoXj.a r - A.-X-X-X'.9.'.-X-X-X-X-X-X-X-X-X-X-X-X-X-X-X-X-X-X-X-X-X-X-X-X-X-X-X=Xp.0.%X-X-X-X*X*X-X-X-Xx Z Z.Z.Z.Z.x.Z.Z.Z.Z.Z.Z.P.' ~ W W ^ _ _ _ ~ Q ! ^ ( L.N.Z.Z.Z.Z.Z.Z.M = 1 k.Z.Z.Z.h u u u u u u u u u u u u u u u u u u u u u u u u u u ",
"u u u u | | t < # y u u u ; *X-X-X-X%Xw.t.&X-X-X-X-X-X-X-X-X-X-X-X-X-X-X-X-X-X-X-X-X-X-X-X-X_.0.p.-X-X-X=Xg.8 W.-X-X-X|.o Z.Z.Z.Z.Z.Z.Z.Z.I.( ! _ } z.Z.Z.Z.Z.Z.Z.Z.Z.Z.M.L.( W ~ [ Z.Z.Z.Z.Z.j.h.Z.Z.Z.n.& u u u u u u u u u u u u u u u u u u u u u u u u u u ",
"u u u u u u u u u u u u y ..-X-X-X-X-X-X].9.i.&X-X-X-X-X-X-X-X-X-X-X-X-X-X-X-X-X-X-X-X-X#Xr.q.$X-X-X-X-X8.$ 8 o j B.*Xm.* N Z.Z.Z.Z.Z.P.^ ^ [ N.Z.Z.Z.Z.Z.Z.Z.Z.Z.Z.Z.Z.Z.Z.Z.Z.I./ ! ] N.Z.Z.Z.Z.Z.Z.Z.C y u u u u u u u u u u u u u u u u u u u u u u u u u u ",
"u u u u u u u u u u u u 5 *X-X-X-X-X-X-X-X=X(.0.t.'.-X-X-X-X-X-X-X-X-X-X-X-X-X-X-X&X).0.w.[.-X-X-X-X;X-X9 f Z.Z.h.h   = 8 n.Z.Z.Z.M._ ^ P.Z.Z.Z.Z.Z.Z.Z.Z.Z.Z.Z.Z.Z.Z.Z.Z.Z.Z.Z.Z.Z.B.) ! [ Z.Z.Z.Z.Z.j.% u u u u u u u u u u u u u u u u u u u u u u u u u u u ",
"u u u u u u u u u u u u f.-X-X-X-XA oX-X-X-X-X-X`.y.9.r./.[.&X-X-X-X-X-X=X%X'.p.q.0.p.$X-X-X-X-X-X-X-X-XJ.o Z.Z.Z.Z.f.h n.Z.Z.Z.} ! L.Z.Z.Z.Z.Z.Z.Z.Z.Z.Z.Z.Z.Z.Z.Z.Z.Z.Z.Z.Z.Z.Z.Z.Z.Z.M._ _ B.Z.Z.Z.a.w u u y $ 6 0 y u u u u u u u u u u u u u u u u u u u u ",
"u u u u u u u u u u u # }.-X-X*Xz u : g.-X-X-X-X-X-X-X#X(.y.q.9.0.0.0.9.0.w.u.).%X-X-X-X-X-X-XOXn.-X-X-X-Xf D Z.Z.Z.Z.Z.Z.Z.N.` _ B.Z.Z.Z.Z.Z.Z.Z.Z.Z.Z.Z.Z.Z.Z.Z.Z.Z.Z.Z.Z.Z.Z.Z.Z.Z.Z.Z.Z.[ W P.Z.Z.Z.A # 4 A n.Z.Z.0 u u u u u u u u u u u u u u u u u u u u ",
"u u u u u u u u u u u & oX-Xm.7 u u u 5 *X-X-X-X-X-X-X-X-X-X-X-X-X-X-X-X-X-X-X-X-X-X-X-X-XOXX.& t n.-X-X-XX.; v.Z.Z.Z.Z.Z.B.^ ' Z.Z.Z.Z.Z.Z.Z.Z.Z.Z.Z.Z.Z.Z.Z.Z.Z.Z.Z.Z.Z.Z.Z.Z.Z.Z.Z.Z.Z.Z.Z.I.! L.Z.Z.Z.a.Z.Z.Z.Z.m., u u u u u u u u u u u u u u u u u u u u ",
"u u u u u u u u u u u u < g r u u u u o.-X-X-X*XoX-X-X-X-X-X-X-X-X-X-X-X-X-X-X-X-X-X-X-X-X|.# u u = b.-X-XV.r 4 b.Z.Z.Z.B.W [ Z.Z.Z.Z.Z.Z.Z.Z.Z.Z.Z.Z.Z.Z.Z.Z.Z.Z.A.Z.Z.Z.Z.Z.Z.Z.Z.Z.Z.Z.Z.Z.Z.M.W L.Z.Z.Z.Z.Z.Z.Z.x u u u u u u u u u | u u u u u u u u u u u ",
"u u u u u u u u u u u u u u u u u u y n.-X-X-Xl.@ p ..-X-X-X-X-X-X-X-X-X-X-X-XoXx.d.-X-X-X-X< | u u e l W.z y y A Z.Z.N.^ [ Z.Z.Z.Z.Z.Z.Z.Z.Z.Z.Z.Z.Z.Z.Z.Z.Z.Z.Z.Z.Z.Z.Z.Z.Z.Z.Z.Z.Z.Z.Z.Z.Z.Z.Z.M.W K.Z.Z.Z.Z.Z.S w u u u u u u u u u u u u u u u u u u u u u ",
"u u u u u u u u u u u u u | u u u u r A.-X-XoX: u | 5 -X-X-X-XV o.o.A.-X-X-Xh.* u = }.-X-X-Xl u | ; , ; . w u 0 Z.Z.Z._ ' Z.Z.Z.Z.Z.Z.Z.Z.Z.Z.Z.Z.Z.Z.Z.Z.Z.Z.Z.Z.Z.Z.Z.Z.Z.Z.Z.Z.Z.Z.Z.Z.Z.Z.Z.Z.Z.M.! z.Z.Z.Z.M e | u u u u u u u u u u u u u u u u u u u u u ",
"u u u u u u u u u u u u u u u u u u r {.-XOX9 u u u i -X-X-XOX$ | u ..-X-X-Xk.u u u z -X-X-Xl | r a.Z.Z.Z.d.j x.Z.Z.{ _ Z.Z.Z.Z.Z.Z.Z.Z.Z.Z.Z.Z.Z.Z.Z.Z.Z.Z.Z.Z.Z.Z.Z.Z.Z.Z.Z.Z.Z.Z.Z.Z.Z.Z.Z.Z.Z.Z.Z.K.Q Z.Z.Z.0 u u u u | u | u u u u u u u u u u | u u u u u ",
"u | u u u u u u u u u u u u u u u u r n Z.4 u u u u 5 -X-X-Xk.u u u l -X-X-Xf.| u u y ..-X-Xg | * f.Z.Z.Z.Z.Z.Z.Z.M.! B.Z.Z.Z.Z.Z.Z.Z.Z.Z.Z.Z.Z.Z.Z.Z.Z.Z.Z.Z.Z.Z.Z.Z.Z.Z.Z.Z.Z.Z.Z.Z.Z.Z.Z.Z.Z.Z.Z.Z.Z.( ' Z.Z.k.* u * @ @ @ y u u u u u u u u u u u u u u u u ",
"u u u u u u u u u u u u u u u u u u u u w u u u u u @ OX-X*X5 u u | = oX-X-Xb u u u u w a.s.- | u - h.Z.Z.Z.Z.Z.Z.~ [ Z.Z.Z.Z.Z.Z.Z.Z.Z.Z.Z.Z.Z.Z.Z.Z.Z.Z.Z.Z.Z.Z.Z.Z.Z.Z.Z.Z.Z.Z.Z.Z.Z.Z.Z.Z.Z.Z.Z.Z.Z.N.! M.Z.Z.M S k.V.m.j.% u u u u u u u u u u u u u u u u ",
"u u u u u u u u u u u u u u u u u u u u | u u u u | y b.-X .y u u u | C -X*X% u u u u u y u u u u u ; S Z.Z.Z.Z.P.^ Z.Z.Z.Z.Z.Z.Z.Z.Z.Z.Z.Z.Z.Z.Z.Z.Z.Z.Z.Z.Z.Z.Z.Z.Z.Z.Z.Z.Z.Z.Z.Z.Z.Z.Z.Z.Z.Z.Z.Z.Z.Z.Z.[ _ Z.Z.Z.Z.Z.Z.Z.Z.8 u u u u | u u u u u u u u u u u ",
"u u u u u u u u u u u u u u u u u u u u u u u u u u u % p e u u u u u *  .v y u u u u u u u u u u u u r 0 n.Z.Z.~ K.Z.Z.Z.Z.Z.Z.Z.Z.Z.Z.Z.Z.Z.Z.Z.Z.Z.Z.Z.Z.Z.Z.Z.Z.Z.Z.Z.Z.Z.Z.Z.Z.Z.Z.Z.Z.Z.Z.Z.Z.Z.Z.Z.Z.W M.Z.Z.Z.Z.Z.Z.x r u u u u u u u u u u u u u u u u ",
"u u u u u u u u u u u u u u u u u u u u u u u u u u u u u | u u u u u u u u u u u u u u u u u u u | u u 1 Z.Z.M.W Z.Z.Z.Z.Z.Z.Z.Z.Z.Z.Z.Z.Z.Z.Z.Z.Z.Z.Z.Z.Z.Z.Z.Z.Z.Z.Z.Z.Z.Z.Z.Z.Z.Z.Z.Z.Z.Z.Z.Z.Z.Z.Z.Z.Z.} ( Z.Z.Z.Z.b.0 y u u u u u u u u u u u u u u u u u ",
"u u u u u u u u u u u u | u u u u u u u u u u u u u u u u u u u u u u u u u u u u u u u u u u u u u u u x Z.Z.) { Z.Z.Z.Z.Z.Z.Z.Z.Z.Z.Z.Z.Z.Z.Z.Z.Z.Z.Z.c.*.#.#.#.%.U.Z.Z.Z.Z.Z.Z.Z.Z.Z.Z.Z.Z.Z.Z.Z.Z.Z.Z.Z.N.E N.Z.N.z % u u u u u u u u u u u u u u u u u u u ",
"u u u u u u u u u u u u u u u u u u u u u u u u u u u u u u u u u u u u u u u u u u u u u | w 1 k N N c h.Z.Z.! B.Z.Z.Z.Z.Z.Z.Z.Z.Z.Z.Z.Z.Z.Z.Z.Z.Z.C.%.O.O.O.O.O.O.O.$.U.Z.Z.Z.Z.Z.Z.Z.Z.Z.Z.Z.Z.Z.Z.Z.Z.Z.Z._ K.Z.Z.; u u u u u u u u u u u u u u u u u u u u ",
"u u u u u u u u u u u u u u u u u u u u u u u u u u u u u u u u u u u u u u u u u u u u u u 7 Z.Z.Z.Z.Z.Z.Z.M.Q Z.Z.Z.Z.Z.Z.Z.Z.Z.Z.Z.Z.Z.Z.Z.Z.Z.C.@.O.O.O.O.O.O.O.O.O.O.&.Z.Z.Z.Z.Z.Z.Z.Z.Z.Z.Z.Z.Z.Z.Z.Z.Z.{ ) Z.Z.k u u | u u u u u u u u u u u u u u u u u ",
"u u u u | u u u u u u u u u u u u u u u u u u u u u u u u u u u u u u u u | u u u u u u u u 0 Z.Z.Z.Z.Z.Z.Z.[ ( Z.Z.Z.Z.Z.Z.Z.Z.Z.Z.Z.Z.Z.Z.Z.Z.V.$.O.O.O.O.O.O.O.O.O.O.O.O.U.Z.Z.Z.Z.Z.Z.Z.Z.Z.Z.Z.Z.Z.Z.Z.Z.M.Q Z.Z...k 9 7 @ u u u u u u u u u u u u u u u u ",
"u u u u u u u u u u u u u u u u u u u u u u u u u u u u u u u u u u u u u u u u u u u u u u y 4 d.Z.Z.Z.Z.Z.( [ Z.Z.Z.Z.Z.Z.Z.Z.Z.Z.Z.Z.Z.Z.Z.Z.%.O.O.O.O.O.O.O.O.O.O.O.O.O.@.Z.Z.Z.Z.Z.Z.Z.Z.Z.Z.Z.Z.Z.Z.Z.Z.Z.E Z.Z.Z.Z.Z.Z.m.B @ u u u u u u u u u u u u u u ",
"u u u u u u u u u u u u u u u u u u u u u u u u u u u u u u u u u u u u u u u u u u u u u u u u w 7 N k.Z.Z.~ I.Z.Z.Z.Z.Z.Z.Z.Z.Z.Z.Z.Z.Z.Z.Z.Z.@.O.O.O.O.O.O.O.O.O.O.O.O.O.O.&.Z.Z.Z.Z.Z.Z.Z.Z.Z.Z.Z.Z.Z.Z.Z.Z.Q M.Z.Z.Z.Z.Z.Z.Z.; u u u u u u u u u u u u u u ",
"u u u u u u u u u u u u u u u u u u u u u u u u u u u u u u u u u u u u u u u u u u u u u u u u u u u M Z.Z.W B.Z.Z.Z.Z.Z.Z.Z.Z.Z.Z.Z.Z.Z.Z.Z.U.O.O.O.O.O.O.O.O.O.O.O.O.O.O.O.#.Z.Z.Z.Z.Z.Z.Z.Z.Z.Z.Z.Z.Z.Z.Z.Z._ P.Z.Z.Z.Z.Z.b.x e u u u u u u u u u u u u u u ",
"u u u u u u u u u u u u u u u u u u u u u u u | u u u u u u u u u u u u u u u u u u u u u u u u u | u N Z.Z.! Z.Z.Z.Z.Z.Z.Z.Z.Z.Z.Z.Z.Z.Z.Z.Z.*.O.O.O.O.O.O.O.O.O.O.O.O.O.O.O.@.Z.Z.Z.Z.Z.Z.Z.Z.Z.Z.Z.Z.Z.Z.Z.Z.` K.Z.Z.j.S x = u u u u u u u u u u u u u | u u ",
"u u | u u u u u u u u u u u u u u u u u u u u u u u u u u u u u u u u u u u u u u u u u u u u u u e % Z Z.Z.! Z.Z.Z.Z.Z.Z.Z.Z.Z.Z.Z.Z.Z.Z.Z.Z.%.O.O.O.O.O.O.O.O.O.O.O.O.O.O.O.@.Z.Z.Z.Z.Z.Z.Z.Z.Z.Z.Z.Z.Z.Z.Z.Z./ K.Z.Z.. u u u u u u u u u u u u u u u u u u u ",
"u u u u u u u u u u u u u u u u u u u u u u u u u u u u u u u u u u u u u u u u u u u u u u u % x d.Z.Z.Z.Z.! Z.Z.Z.Z.Z.Z.Z.Z.Z.A.Z.Z.Z.Z.Z.Z.*.O.O.O.O.O.O.O.O.O.O.O.O.O.O.O.@.Z.Z.Z.Z.Z.Z.Z.Z.Z.Z.Z.Z.Z.Z.Z.Z.` K.Z.n.@ u u u u u u u u u u u u u u u u u u u ",
"u u u u u u u u u u u u u u u u u u u u u u u u u u u u u u u u u u u u u u u u u u u u u y h b.Z.Z.Z.Z.Z.Z.W M.Z.Z.Z.Z.Z.Z.Z.Z.Z.Z.Z.Z.Z.Z.Z.U.O.O.O.O.O.O.O.O.O.O.O.O.O.O.O.=.Z.Z.Z.Z.Z.Z.Z.Z.Z.Z.Z.Z.Z.Z.Z.Z.~ I.Z.n.O u u u u u u u u u u u u u u u u u u u ",
"u u u u u u u u u u u u u u u u u u u u u u u u u u u u u u u u u u u u u u u u u u u u u u Z Z.Z.Z.Z.Z.Z.Z._ P.Z.Z.Z.Z.Z.Z.Z.Z.Z.Z.Z.Z.Z.Z.Z.Z.@.O.O.O.O.O.O.O.O.O.O.O.O.O.O.U.Z.Z.Z.Z.Z.Z.Z.Z.Z.Z.Z.Z.Z.Z.Z.Z.W B.Z.Z.h.N 7 r u u u u u u u u u u u | u u u u ",
"u u u u u u u u u u u u u u u u u u u u u u u u u u u u u u u u u u u u u u u u u u u u u u 6 B x.Z.Z.Z.Z.Z.) { Z.Z.Z.Z.Z.Z.Z.Z.Z.Z.Z.Z.Z.Z.Z.Z.&.O.O.O.O.O.O.O.O.O.O.O.O.O.#.Z.Z.Z.Z.Z.Z.Z.Z.Z.Z.Z.Z.Z.Z.Z.Z.Z.E Z.Z.Z.Z.Z.Z.A ; u u u u u u u u u u u u u u u ",
"u u u u u u u u u u u u u u u u u u u u u u u u u u u u u u u u u u u u u u u u u u u u u u u u * ; < 3 Z.Z.L./ Z.Z.Z.Z.Z.Z.Z.Z.Z.Z.Z.Z.Z.Z.Z.Z.Z.#.O.O.O.O.O.O.O.O.O.O.O.+.U.Z.Z.Z.Z.Z.Z.Z.Z.Z.Z.Z.Z.Z.Z.Z.Z.I.^ Z.Z.Z.Z.Z.Z.Z.d.w u u u u u u u u u u u u u u ",
"u u u u u u u u u u u u u u u u u u u u u | u u u u u u u u u u u u u u u u u u u u u u u u u u u u u # b.Z.B.! Z.Z.Z.Z.Z.Z.Z.Z.Z.Z.Z.Z.Z.Z.Z.Z.Z.V.#.O.O.O.O.O.O.O.O.O.@.U.Z.Z.Z.Z.Z.Z.Z.Z.Z.Z.Z.Z.Z.Z.Z.Z.Z.] ' Z.Z.Z.Z.Z.Z.Z.N u u u u u u u u u u u u u u u ",
"u u u u u u u u u u u u u u u u u u u u u u u u u u u u u u u u u u u u u u | u u u u u u u u u u | u y S Z.Z.^ z.Z.Z.Z.Z.Z.Z.Z.Z.Z.Z.Z.Z.Z.Z.Z.Z.Z.Z.&.@.O.O.O.O.O.O.=.C.Z.Z.Z.Z.Z.Z.Z.Z.Z.Z.Z.Z.Z.Z.Z.Z.Z.Z.^ I.Z.Z.0 k l 7 % w u u u u u u u u u u u u u u u ",
"u u u u u u u u u u u u u u u u u u u u u | u u u u u u u u u u u u u u u u u u u u u u u u u u u u % x x.Z.Z.' ' Z.Z.Z.Z.Z.Z.Z.Z.Z.Z.Z.Z.Z.Z.Z.Z.Z.Z.Z.Z.U.*.%.*.&.C.Z.Z.Z.Z.Z.Z.Z.Z.Z.Z.Z.Z.Z.Z.Z.Z.Z.Z.Z.B.W Z.Z.g.w u u u u u u u u u u u u u u u u u u u u ",
"u u u u u u u u u u u u u u u u u u u u u u u u u u u u u u u u u u u u u u u u u u u u u u u u y 6 b.Z.Z.Z.Z.N.E Z.Z.Z.Z.Z.Z.Z.Z.Z.Z.Z.Z.Z.Z.Z.Z.Z.Z.Z.Z.Z.Z.Z.Z.Z.Z.Z.Z.Z.Z.Z.Z.Z.Z.Z.Z.Z.Z.Z.Z.Z.Z.Z.Z.Z.' ' Z.Z.v u u u u u u u u u u u u u u u u u u u u u ",
"u u u u u u u u u u u u u u u u u u u u u u u u u u u | u u u u u u u u u u u u u u u u u u u u 0 n.Z.Z.Z.Z.Z.Z./ { Z.Z.Z.Z.Z.Z.Z.Z.Z.Z.Z.Z.Z.Z.Z.Z.Z.Z.Z.Z.Z.Z.Z.Z.Z.Z.Z.Z.Z.Z.Z.Z.Z.Z.Z.Z.Z.Z.Z.Z.Z.Z.Z.Z.E B.Z.Z.a.4 y u u u u u u u u u u u u u u u u u u u ",
"u u u u u u u u u u u u u u u u u u u u u u u u u u u u u u u u u u u u u u u u u u u u u u u # k.Z.Z.Z.Z.Z.Z.Z.z.W Z.Z.Z.Z.Z.Z.Z.Z.Z.Z.Z.Z.Z.Z.Z.Z.Z.Z.Z.Z.Z.Z.Z.Z.Z.Z.Z.Z.Z.Z.Z.Z.Z.Z.Z.Z.Z.Z.Z.Z.Z.Z.Z.' ) Z.Z.Z.Z.V.x r u u u u u u u u u u u u u u u u u u ",
"u u | u u u u u u u u u u u u u u u u u u u u u u u u u u u u u u u u u u u u u u u u u u u u u h a.f.a.N 0 k.Z.Z.( ' Z.Z.Z.Z.Z.Z.Z.Z.Z.Z.Z.Z.Z.Z.Z.Z.Z.Z.Z.Z.Z.Z.Z.Z.Z.Z.Z.Z.Z.Z.Z.Z.Z.Z.Z.Z.Z.Z.Z.Z.Z.M.! B.Z.Z.Z.Z.Z.Z.x r u u u u u u u u u u u u u u u u u ",
"u u u u u u u u u u u u u | u u u u u u u u u u u u u u u u u u u u u u u u u u u u u u u u u u y y y r u | 0 Z.Z.N.W z.Z.Z.Z.Z.Z.Z.Z.Z.Z.Z.Z.Z.Z.Z.Z.Z.Z.Z.Z.Z.Z.Z.Z.Z.Z.Z.Z.Z.Z.Z.Z.Z.Z.Z.Z.Z.Z.Z.Z.Z.~ [ Z.Z.Z.Z.Z.Z.Z.Z.0 u u u u u u u u u u u u u u u u u ",
"u u u u u u u u u u u u u u u u u u u u u u u u u u u u u u u u u u u u u u u u u u u u u u u u u u u u u u w d.Z.Z.K.Q N.Z.Z.Z.Z.Z.Z.Z.Z.Z.Z.Z.Z.Z.Z.Z.Z.Z.Z.Z.Z.Z.Z.Z.Z.Z.Z.Z.Z.Z.Z.Z.Z.Z.Z.Z.Z.Z.Z.] _ Z.Z.Z.q x s.m.V.n.; u u u u u u u u u u | u u u u u u ",
"u u u u u u u u u u u u u u u u u u u u u u u u u u u u u u u u u u u u u u u u u u u u u u u u u u u u | r j n.Z.Z.Z.' ` Z.Z.Z.Z.Z.Z.Z.Z.Z.Z.Z.Z.Z.Z.Z.Z.Z.Z.Z.Z.Z.Z.Z.Z.Z.Z.Z.Z.Z.Z.Z.Z.Z.Z.Z.Z.Z.K.W B.Z.Z.C y u r @ @ O u u u u u u u u u u u u u u u u u u ",
"u u u u u u u u u u u u u u u u u u u u u u u u u u u u u u u u u u u u u u u u u u u u u u u u u u u u y z Z.Z.Z.Z.Z.Z./ ( Z.Z.Z.Z.Z.Z.Z.Z.Z.Z.Z.Z.Z.Z.Z.Z.Z.Z.Z.Z.Z.Z.Z.Z.Z.Z.Z.Z.Z.Z.Z.Z.Z.Z.Z.P.! M.Z.Z.n.> | u | u u u u u u u u u u u u u u u u u u u u u ",
"u u u u u u u u u u u u u u u u u | u u u u u u u u u u u u u u u u u u u u u u u u u u u u u u u u u u 4 N.Z.Z.Z.Z.Z.Z.Z._ ( Z.Z.Z.Z.Z.Z.Z.Z.Z.Z.Z.Z.Z.Z.Z.Z.Z.Z.Z.Z.Z.Z.Z.Z.Z.Z.Z.Z.Z.Z.Z.Z.Z.P.! I.Z.Z.Z.Z.a.# u u u u u u u u u u u u u u u u u u u u u u u ",
"u u u u u u u u u u u u u u u u u u u u u u u u u u u u u u u u u u u u u u u u u u u u u u u u u u u e g.Z.Z.Z.Z.N j.Z.Z.Z.( ~ N.Z.Z.A.Z.Z.Z.Z.Z.Z.Z.Z.Z.Z.Z.Z.Z.Z.Z.Z.Z.Z.Z.Z.Z.Z.Z.Z.Z.Z.Z.[ W I.Z.Z.Z.Z.Z.Z.B y u u u u u u u u u u u u u u u u u u u u u u ",
"u u u u u u u u u u u u u u u u u u u u u u u u u u u u u u u u u u u u u u u u u u u | u u u u u u u e a.Z.x.Z 4 r , b.Z.Z.Z.] W I.Z.Z.Z.Z.Z.Z.Z.Z.Z.Z.Z.Z.Z.Z.Z.Z.Z.Z.Z.Z.Z.Z.Z.Z.Z.Z.Z.N./ ~ N.Z.Z.Z.Z.Z.Z.Z.Z.4 u u u u u u u u u u u u u u u u u u u u u u ",
"u u u | u u u u u u u u u u u u u u u u u u u u u u u u u u u u u u u u u u u u u u u u u u u u u u u u - ; # y | u u 3 Z.Z.Z.Z.I.W ( N.Z.Z.Z.Z.Z.Z.Z.Z.Z.Z.Z.Z.Z.Z.Z.Z.Z.Z.Z.Z.Z.Z.Z.Z.L.! ] Z.Z.Z.Z.v 0 x.Z.Z.Z...r u u u u u u u u u u u u u u u u u u u u | ",
"u u u u u u u u u u u u u u u u u u u u u u u u u u u u u u u u u u u u u u u u u u u u | u u u u u u u u u u u u u r S Z.Z.Z.Z.Z.Z.] ! ' N.Z.Z.Z.Z.Z.Z.Z.Z.Z.Z.Z.Z.Z.Z.Z.Z.Z.Z.Z.Z.K.^ _ z.Z.Z.Z.Z.h r u % x g.Z.B y u u u u u u u u u u u u u u u u u u u u u ",
"u | u u u u u u u u u u u u u u u u u u u u u u u u u u u u u | u u u u u u u u u u u u u u u u u u u u u u u u u u 0 Z.Z.Z.Z.Z.Z.Z.Z.B.) ! ( I.Z.Z.Z.Z.Z.Z.Z.Z.Z.Z.Z.Z.Z.Z.Z.B.} W ~ P.Z.Z.Z.Z.Z.m.1 u u u u w ; * u u u u u u u u u u u u u u u u u u u u u u ",
"u u u u u u u u u u u u u u u u u u u u u u u u u u u u u u u u u u u u u u u u u u u u u u u u u u u u u u u u u y S Z.Z.Z.n.c n.Z.Z.Z.Z.Z.[ ~ ! ` } P.N.Z.Z.Z.Z.Z.Z.M.L.) ^ W ' M.Z.Z.Z.Z.Z.Z.Z.Z.D y u u u u u u u u u u u u u u u u u u u u u u u u u u u u ",
"u u u u u u u u u u u u u u u u u u u u u u u u u u u u u u u u u u u u u u u u u u u u u u u u u u u u u u u u u % n.Z.Z.b.8 y , ..Z.Z.Z.Z.Z.Z.Z.K.' _ ^ ! W W W W W ^ ( [ M.Z.Z.Z.Z.Z.Z.b.d.Z.Z.Z.Z.; | u u u u u u u u u u u u u u u u u u u u u u u u u u u ",
"u u u u u u u u u u u u u | u u u u u u u u u u u u u u u u | u u u u u u u u u u u u u u u u u u u u u u u u u u , n.Z.S , u u u 8 Z.Z.Z.Z.Z.Z.Z.Z.Z.Z.Z.Z.Z.Z.Z.Z.Z.Z.Z.Z.Z.Z.Z.Z.Z.m.x % - k.Z.Z.Z.k u u u u u u u u u u u u u u u u u | u u u u u u u u u u ",
"u u u u u u u u u u u u u u u u u u u u u u u u u u u u u u u u u u u u u u u u u u u u u u u u u u u u u u u u u u 4 4 r u u u y D Z.Z.N.n.n.Z.Z.Z.Z.Z.Z.Z.Z.Z.Z.Z.Z.Z.Z.Z.Z.Z.Z.Z.Z.S r u u ; g.Z.Z.N u u u u u u u u u u u u u u u u u u u u u u u u u u u u ",
"u u u u u u u u u u u u u u u u u u u u u u | u u u u u u u u u u u u u u u u u u u u u u u u u u u u u u u u u u u u u u u u u # j.Z.Z.Z.x $ 7 Z Z.Z.Z.Z.Z.Z.Z.Z.Z.Z.Z.Z.b.A S Z.Z.Z.n.$ u u u e j h.8 u u u u u u u u u u u u u u u u u u u u u u u u u | u u ",
"u u u u u u u u u u u u u u u u u u u u u u u u u u u u u u u u u u u u u u u u u u u u u u u u u u u u u u u u u u u u u u u u @ n.Z.Z.h.* u u 9 Z.Z.Z.Z.h v v j.Z.Z.Z.v @ u ; n.Z.Z.Z.< u u u | u @ u u u u u u u u u u u u u u u u u u u u u u u u u u u u u ",
"u u u u u u u u u u u u u u u u u u u u u u u u u u u u u u u u u u u u u u u u u u u u u u u u u u u u u u u u u u u u | u u u @ Z.Z.j.; u u u f Z.Z.Z.h.e | y S Z.Z.Z.v u u y v Z.Z.Z.< u u u u u u u u u u u u u u u u u u u u u u u u u u u u u u u u u u u ",
"u u u u u u u u u u u u u u u u u u u u u u u u u u u u u u u u | u u u u u u u u u u u u u u u u u u u u u u u u u u u u u u u w c f.; u u u u a Z.Z.Z.x u u u x Z.Z.Z.z u u u e  .Z.Z.; u u u u u u | u u u u u u u u u u u u u u u u u u u u u u u u u u u u ",
"u u u u u u u u u u u u u u u u u u u u u u u u u u u u u u u u u u u u u u u u u u u u u u u u u u u u u u u u u u u u u u u u u u w u u u u u ; Z.Z.b.; u u u ; N.Z.Z.4 u u u u = D M * u u u u u u u u u u u u u u u u u u u u u u u u u u u u u u u u u u u ",
"u u u u u u u u u u u u u u u u u u u u u u u u u u u u u u u u u u u u u u u u u u u u u u u u u u u u u | u u u u u u u u u u u u u u u u u u # j.Z.f u u u u y C N.x.# | u u u u r u u u u u u u u u u u u u u u u u u u u u u u u u u u u u u u u u u u u u ",
"u u u u u u u u u u u u u u u u u u u u u u u u u u u u u u u u u u u u u u u u u u u u u u u u u u u u u u u u u u u u u u u u u u u u u u u u u & 7 e u u u u u ; M q u u u u u u u u u u u u u u u u u u u u u u u u u u u u | u u u u u u u u u u u u u u u "
};
